,Acquisition,Contrast,T-Stat Path,Run,Session,Subject,Task,P-Stat Path,Treatment,Mean DR t,Median DR t,Mean DR Significance,Median DR Significance,Exclude,Irregularities
0,EPI,cbv,/home/chymera/.scratch/drlfom/dw_l1/sub-5668/ses-ofM/sub-5668_ses-ofM_task-JogB_acq-EPI_run-0_cbv_tstat.nii.gz,0,ofM,5668,JogB,/home/chymera/.scratch/drlfom/dw_l1/sub-5668/ses-ofM/sub-5668_ses-ofM_task-JogB_acq-EPI_run-0_cbv_pstat.nii.gz,Fluoxetine,1.0215990543365479,0.9757883548736572,1.241079568862915,0.7834968566894531,False,ICA failed to indicate response to stimulus
1,EPI,cbv,/home/chymera/.scratch/drlfom/dw_l1/sub-5673/ses-ofM/sub-5673_ses-ofM_task-CogB_acq-EPI_run-0_cbv_tstat.nii.gz,0,ofM,5673,CogB,/home/chymera/.scratch/drlfom/dw_l1/sub-5673/ses-ofM/sub-5673_ses-ofM_task-CogB_acq-EPI_run-0_cbv_pstat.nii.gz,Vehicle,0.6873949766159058,0.6562590599060059,1.414503812789917,0.5927945971488953,False,laser power low (30mW); ICA failed to indicate response to stimulus
2,EPI,cbv,/home/chymera/.scratch/drlfom/dw_l1/sub-5674/ses-ofM/sub-5674_ses-ofM_task-CogB_acq-EPI_run-0_cbv_tstat.nii.gz,0,ofM,5674,CogB,/home/chymera/.scratch/drlfom/dw_l1/sub-5674/ses-ofM/sub-5674_ses-ofM_task-CogB_acq-EPI_run-0_cbv_pstat.nii.gz,Fluoxetine,1.158050775527954,1.4599785804748535,1.2683509588241577,1.1411590576171875,False,ICA failed to indicate response to stimulus
3,EPI,cbv,/home/chymera/.scratch/drlfom/dw_l1/sub-5675/ses-ofM/sub-5675_ses-ofM_task-JogB_acq-EPI_run-0_cbv_tstat.nii.gz,0,ofM,5675,JogB,/home/chymera/.scratch/drlfom/dw_l1/sub-5675/ses-ofM/sub-5675_ses-ofM_task-JogB_acq-EPI_run-0_cbv_pstat.nii.gz,Fluoxetine,0.410093754529953,0.4733651876449585,0.7544017434120178,0.49769389629364014,False,ICA failed to indicate response to stimulus
4,EPI,cbv,/home/chymera/.scratch/drlfom/dw_l1/sub-5689/ses-ofM/sub-5689_ses-ofM_task-CogB_acq-EPI_run-0_cbv_tstat.nii.gz,0,ofM,5689,CogB,/home/chymera/.scratch/drlfom/dw_l1/sub-5689/ses-ofM/sub-5689_ses-ofM_task-CogB_acq-EPI_run-0_cbv_pstat.nii.gz,Fluoxetine,11.083925247192383,10.537459373474121,24.032392501831055,24.66735076904297,False,
5,EPI,cbv,/home/chymera/.scratch/drlfom/dw_l1/sub-5689/ses-ofMaF/sub-5689_ses-ofMaF_task-CogB_acq-EPI_run-0_cbv_tstat.nii.gz,0,ofMaF,5689,CogB,/home/chymera/.scratch/drlfom/dw_l1/sub-5689/ses-ofMaF/sub-5689_ses-ofMaF_task-CogB_acq-EPI_run-0_cbv_pstat.nii.gz,Fluoxetine,16.47353744506836,16.255239486694336,40.36178207397461,44.85346984863281,False,rapid breathing and whisker movement upon measurement conclusion (no signs of anesthetic mis-delivery)
6,EPI,cbv,/home/chymera/.scratch/drlfom/dw_l1/sub-5689/ses-ofMcF1/sub-5689_ses-ofMcF1_task-CogB_acq-EPI_run-0_cbv_tstat.nii.gz,0,ofMcF1,5689,CogB,/home/chymera/.scratch/drlfom/dw_l1/sub-5689/ses-ofMcF1/sub-5689_ses-ofMcF1_task-CogB_acq-EPI_run-0_cbv_pstat.nii.gz,Fluoxetine,14.521389961242676,14.234975814819336,35.27846145629883,42.79802322387695,False,
7,EPI,cbv,/home/chymera/.scratch/drlfom/dw_l1/sub-5689/ses-ofMcF2/sub-5689_ses-ofMcF2_task-CogB_acq-EPI_run-0_cbv_tstat.nii.gz,0,ofMcF2,5689,CogB,/home/chymera/.scratch/drlfom/dw_l1/sub-5689/ses-ofMcF2/sub-5689_ses-ofMcF2_task-CogB_acq-EPI_run-0_cbv_pstat.nii.gz,Fluoxetine,10.011017799377441,10.25733757019043,23.697650909423828,23.47760009765625,False,
8,EPI,cbv,/home/chymera/.scratch/drlfom/dw_l1/sub-5689/ses-ofMpF/sub-5689_ses-ofMpF_task-CogB_acq-EPI_run-0_cbv_tstat.nii.gz,0,ofMpF,5689,CogB,/home/chymera/.scratch/drlfom/dw_l1/sub-5689/ses-ofMpF/sub-5689_ses-ofMpF_task-CogB_acq-EPI_run-0_cbv_pstat.nii.gz,Fluoxetine,5.3344268798828125,4.763307571411133,10.159395217895508,5.982521057128906,False,
9,EPI,cbv,/home/chymera/.scratch/drlfom/dw_l1/sub-5690/ses-ofM/sub-5690_ses-ofM_task-CogB_acq-EPI_run-0_cbv_tstat.nii.gz,0,ofM,5690,CogB,/home/chymera/.scratch/drlfom/dw_l1/sub-5690/ses-ofM/sub-5690_ses-ofM_task-CogB_acq-EPI_run-0_cbv_pstat.nii.gz,Fluoxetine,5.811519145965576,2.78188419342041,11.58623218536377,2.562838554382324,False,
10,EPI,cbv,/home/chymera/.scratch/drlfom/dw_l1/sub-5690/ses-ofMaF/sub-5690_ses-ofMaF_task-CogB_acq-EPI_run-0_cbv_tstat.nii.gz,0,ofMaF,5690,CogB,/home/chymera/.scratch/drlfom/dw_l1/sub-5690/ses-ofMaF/sub-5690_ses-ofMaF_task-CogB_acq-EPI_run-0_cbv_pstat.nii.gz,Fluoxetine,10.956382751464844,9.939672470092773,24.56964111328125,22.16067123413086,False,
11,EPI,cbv,/home/chymera/.scratch/drlfom/dw_l1/sub-5690/ses-ofMcF1/sub-5690_ses-ofMcF1_task-CogB_acq-EPI_run-0_cbv_tstat.nii.gz,0,ofMcF1,5690,CogB,/home/chymera/.scratch/drlfom/dw_l1/sub-5690/ses-ofMcF1/sub-5690_ses-ofMcF1_task-CogB_acq-EPI_run-0_cbv_pstat.nii.gz,Fluoxetine,13.397699356079102,10.701116561889648,27.066837310791016,25.40631103515625,False,
12,EPI,cbv,/home/chymera/.scratch/drlfom/dw_l1/sub-5690/ses-ofMcF2/sub-5690_ses-ofMcF2_task-CogB_acq-EPI_run-0_cbv_tstat.nii.gz,0,ofMcF2,5690,CogB,/home/chymera/.scratch/drlfom/dw_l1/sub-5690/ses-ofMcF2/sub-5690_ses-ofMcF2_task-CogB_acq-EPI_run-0_cbv_pstat.nii.gz,Fluoxetine,8.518013000488281,6.4619927406311035,16.756534576416016,10.17399787902832,False,
13,EPI,cbv,/home/chymera/.scratch/drlfom/dw_l1/sub-5690/ses-ofMpF/sub-5690_ses-ofMpF_task-CogB_acq-EPI_run-0_cbv_tstat.nii.gz,0,ofMpF,5690,CogB,/home/chymera/.scratch/drlfom/dw_l1/sub-5690/ses-ofMpF/sub-5690_ses-ofMpF_task-CogB_acq-EPI_run-0_cbv_pstat.nii.gz,Fluoxetine,3.935628890991211,3.6921331882476807,6.392289161682129,3.9394428730010986,False,
14,EPI,cbv,/home/chymera/.scratch/drlfom/dw_l1/sub-5691/ses-ofM/sub-5691_ses-ofM_task-CogB_acq-EPI_run-0_cbv_tstat.nii.gz,0,ofM,5691,CogB,/home/chymera/.scratch/drlfom/dw_l1/sub-5691/ses-ofM/sub-5691_ses-ofM_task-CogB_acq-EPI_run-0_cbv_pstat.nii.gz,Vehicle,7.352309226989746,5.814459800720215,15.793920516967773,8.429941177368164,False,
15,EPI,bold,/home/chymera/.scratch/drlfom/dw_l1/sub-5691/ses-ofMaF/sub-5691_ses-ofMaF_task-CogB_acq-EPI_run-0_bold_tstat.nii.gz,0,ofMaF,5691,CogB,/home/chymera/.scratch/drlfom/dw_l1/sub-5691/ses-ofMaF/sub-5691_ses-ofMaF_task-CogB_acq-EPI_run-0_bold_pstat.nii.gz,Vehicle,-0.6807991862297058,-0.6930643320083618,0.5634337067604065,0.12322547286748886,False,"tail too short, unable to cannulate"
16,EPI,bold,/home/chymera/.scratch/drlfom/dw_l1/sub-5691/ses-ofMcF1/sub-5691_ses-ofMcF1_task-CogB_acq-EPI_run-0_bold_tstat.nii.gz,0,ofMcF1,5691,CogB,/home/chymera/.scratch/drlfom/dw_l1/sub-5691/ses-ofMcF1/sub-5691_ses-ofMcF1_task-CogB_acq-EPI_run-0_bold_pstat.nii.gz,Fluoxetine,-2.7854526042938232,-2.804046630859375,0.1756466180086136,0.008344168774783611,False,"tail too short, unable to cannulate"
17,EPI,cbv,/home/chymera/.scratch/drlfom/dw_l1/sub-5691/ses-ofMcF2/sub-5691_ses-ofMcF2_task-CogB_acq-EPI_run-0_cbv_tstat.nii.gz,0,ofMcF2,5691,CogB,/home/chymera/.scratch/drlfom/dw_l1/sub-5691/ses-ofMcF2/sub-5691_ses-ofMcF2_task-CogB_acq-EPI_run-0_cbv_pstat.nii.gz,Fluoxetine,6.651759624481201,6.543117523193359,13.183656692504883,10.3943452835083,False,
18,EPI,bold,/home/chymera/.scratch/drlfom/dw_l1/sub-5691/ses-ofMpF/sub-5691_ses-ofMpF_task-CogB_acq-EPI_run-0_bold_tstat.nii.gz,0,ofMpF,5691,CogB,/home/chymera/.scratch/drlfom/dw_l1/sub-5691/ses-ofMpF/sub-5691_ses-ofMpF_task-CogB_acq-EPI_run-0_bold_pstat.nii.gz,Fluoxetine,-1.8993252515792847,-2.1947622299194336,0.6073221564292908,0.022317057475447655,True,incomplete Endorem delivery
19,EPI,cbv,/home/chymera/.scratch/drlfom/dw_l1/sub-5692/ses-ofM/sub-5692_ses-ofM_task-CogB_acq-EPI_run-0_cbv_tstat.nii.gz,0,ofM,5692,CogB,/home/chymera/.scratch/drlfom/dw_l1/sub-5692/ses-ofM/sub-5692_ses-ofM_task-CogB_acq-EPI_run-0_cbv_pstat.nii.gz,Vehicle,0.9584088921546936,1.1727981567382812,1.3498668670654297,0.9193022847175598,False,
20,EPI,bold,/home/chymera/.scratch/drlfom/dw_l1/sub-5692/ses-ofMaF/sub-5692_ses-ofMaF_task-CogB_acq-EPI_run-0_bold_tstat.nii.gz,0,ofMaF,5692,CogB,/home/chymera/.scratch/drlfom/dw_l1/sub-5692/ses-ofMaF/sub-5692_ses-ofMaF_task-CogB_acq-EPI_run-0_bold_pstat.nii.gz,Vehicle,-0.07360519468784332,0.23771390318870544,0.7426231503486633,0.3914726674556732,False,unable to cannulate; ICA failed to indicate response to stimulus
21,EPI,cbv,/home/chymera/.scratch/drlfom/dw_l1/sub-5692/ses-ofMcF1/sub-5692_ses-ofMcF1_task-CogB_acq-EPI_run-0_cbv_tstat.nii.gz,0,ofMcF1,5692,CogB,/home/chymera/.scratch/drlfom/dw_l1/sub-5692/ses-ofMcF1/sub-5692_ses-ofMcF1_task-CogB_acq-EPI_run-0_cbv_pstat.nii.gz,Vehicle,0.2038171887397766,0.04879877716302872,0.6876729726791382,0.31826961040496826,False,ICA failed to indicate response to stimulus
22,EPI,cbv,/home/chymera/.scratch/drlfom/dw_l1/sub-5692/ses-ofMcF2/sub-5692_ses-ofMcF2_task-CogB_acq-EPI_run-0_cbv_tstat.nii.gz,0,ofMcF2,5692,CogB,/home/chymera/.scratch/drlfom/dw_l1/sub-5692/ses-ofMcF2/sub-5692_ses-ofMcF2_task-CogB_acq-EPI_run-0_cbv_pstat.nii.gz,Vehicle,0.6990928053855896,0.8163644671440125,1.0148476362228394,0.6837016344070435,False,
23,EPI,cbv,/home/chymera/.scratch/drlfom/dw_l1/sub-5692/ses-ofMpF/sub-5692_ses-ofMpF_task-CogB_acq-EPI_run-0_cbv_tstat.nii.gz,0,ofMpF,5692,CogB,/home/chymera/.scratch/drlfom/dw_l1/sub-5692/ses-ofMpF/sub-5692_ses-ofMpF_task-CogB_acq-EPI_run-0_cbv_pstat.nii.gz,Vehicle,-0.029710054397583008,-0.007681824266910553,0.7555152773857117,0.298616498708725,False,
24,EPI,cbv,/home/chymera/.scratch/drlfom/dw_l1/sub-5694/ses-ofM/sub-5694_ses-ofM_task-CogB_acq-EPI_run-0_cbv_tstat.nii.gz,0,ofM,5694,CogB,/home/chymera/.scratch/drlfom/dw_l1/sub-5694/ses-ofM/sub-5694_ses-ofM_task-CogB_acq-EPI_run-0_cbv_pstat.nii.gz,Vehicle,3.0616259574890137,2.8572239875793457,5.327938556671143,2.6672816276550293,False,injected saline into failed cannulation site
25,EPI,cbv,/home/chymera/.scratch/drlfom/dw_l1/sub-5694/ses-ofMaF/sub-5694_ses-ofMaF_task-CogB_acq-EPI_run-0_cbv_tstat.nii.gz,0,ofMaF,5694,CogB,/home/chymera/.scratch/drlfom/dw_l1/sub-5694/ses-ofMaF/sub-5694_ses-ofMaF_task-CogB_acq-EPI_run-0_cbv_pstat.nii.gz,Vehicle,2.418178081512451,1.2107782363891602,4.842512130737305,0.9468433260917664,False,
26,EPI,cbv,/home/chymera/.scratch/drlfom/dw_l1/sub-5694/ses-ofMcF1/sub-5694_ses-ofMcF1_task-CogB_acq-EPI_run-0_cbv_tstat.nii.gz,0,ofMcF1,5694,CogB,/home/chymera/.scratch/drlfom/dw_l1/sub-5694/ses-ofMcF1/sub-5694_ses-ofMcF1_task-CogB_acq-EPI_run-0_cbv_pstat.nii.gz,Vehicle,3.4170455932617188,2.703474998474121,5.119437217712402,2.4597067832946777,True,slightly incomplete Endorem delivery
27,EPI,cbv,/home/chymera/.scratch/drlfom/dw_l1/sub-5694/ses-ofMcF2/sub-5694_ses-ofMcF2_task-CogB_acq-EPI_run-0_cbv_tstat.nii.gz,0,ofMcF2,5694,CogB,/home/chymera/.scratch/drlfom/dw_l1/sub-5694/ses-ofMcF2/sub-5694_ses-ofMcF2_task-CogB_acq-EPI_run-0_cbv_pstat.nii.gz,Vehicle,1.6078400611877441,2.015960693359375,2.3181333541870117,1.6602349281311035,False,
28,EPI,cbv,/home/chymera/.scratch/drlfom/dw_l1/sub-5694/ses-ofMpF/sub-5694_ses-ofMpF_task-CogB_acq-EPI_run-0_cbv_tstat.nii.gz,0,ofMpF,5694,CogB,/home/chymera/.scratch/drlfom/dw_l1/sub-5694/ses-ofMpF/sub-5694_ses-ofMpF_task-CogB_acq-EPI_run-0_cbv_pstat.nii.gz,Vehicle,1.046102523803711,0.660068154335022,1.820717453956604,0.6222229599952698,False,
29,EPI,cbv,/home/chymera/.scratch/drlfom/dw_l1/sub-5700/ses-ofM/sub-5700_ses-ofM_task-CogB_acq-EPI_run-0_cbv_tstat.nii.gz,0,ofM,5700,CogB,/home/chymera/.scratch/drlfom/dw_l1/sub-5700/ses-ofM/sub-5700_ses-ofM_task-CogB_acq-EPI_run-0_cbv_pstat.nii.gz,Fluoxetine,2.39288067817688,2.257817268371582,3.3816888332366943,1.919004201889038,False,ICA failed to indicate response to stimulus
30,EPI,cbv,/home/chymera/.scratch/drlfom/dw_l1/sub-5700/ses-ofMaF/sub-5700_ses-ofMaF_task-CogB_acq-EPI_run-0_cbv_tstat.nii.gz,0,ofMaF,5700,CogB,/home/chymera/.scratch/drlfom/dw_l1/sub-5700/ses-ofMaF/sub-5700_ses-ofMaF_task-CogB_acq-EPI_run-0_cbv_pstat.nii.gz,Fluoxetine,3.1077284812927246,2.8659279346466064,4.170926570892334,2.6762232780456543,False,"re-ran adjustments after endorem administration, total delay ~20min"
31,EPI,cbv,/home/chymera/.scratch/drlfom/dw_l1/sub-5700/ses-ofMcF1/sub-5700_ses-ofMcF1_task-CogB_acq-EPI_run-0_cbv_tstat.nii.gz,0,ofMcF1,5700,CogB,/home/chymera/.scratch/drlfom/dw_l1/sub-5700/ses-ofMcF1/sub-5700_ses-ofMcF1_task-CogB_acq-EPI_run-0_cbv_pstat.nii.gz,Fluoxetine,4.177031993865967,3.699075937271118,6.445158958435059,3.950390577316284,False,
32,EPI,cbv,/home/chymera/.scratch/drlfom/dw_l1/sub-5700/ses-ofMcF2/sub-5700_ses-ofMcF2_task-CogB_acq-EPI_run-0_cbv_tstat.nii.gz,0,ofMcF2,5700,CogB,/home/chymera/.scratch/drlfom/dw_l1/sub-5700/ses-ofMcF2/sub-5700_ses-ofMcF2_task-CogB_acq-EPI_run-0_cbv_pstat.nii.gz,Fluoxetine,3.2556686401367188,2.9748377799987793,4.76704216003418,2.827054977416992,False,
33,EPI,cbv,/home/chymera/.scratch/drlfom/dw_l1/sub-5700/ses-ofMpF/sub-5700_ses-ofMpF_task-CogB_acq-EPI_run-0_cbv_tstat.nii.gz,0,ofMpF,5700,CogB,/home/chymera/.scratch/drlfom/dw_l1/sub-5700/ses-ofMpF/sub-5700_ses-ofMpF_task-CogB_acq-EPI_run-0_cbv_pstat.nii.gz,Fluoxetine,0.3013947904109955,0.17238354682922363,1.1057875156402588,0.3649486303329468,False,
34,EPI,cbv,/home/chymera/.scratch/drlfom/dw_l1/sub-5704/ses-ofM/sub-5704_ses-ofM_task-CogB_acq-EPI_run-0_cbv_tstat.nii.gz,0,ofM,5704,CogB,/home/chymera/.scratch/drlfom/dw_l1/sub-5704/ses-ofM/sub-5704_ses-ofM_task-CogB_acq-EPI_run-0_cbv_pstat.nii.gz,Vehicle,1.464957594871521,1.441949725151062,1.5017974376678467,1.1266040802001953,False,"blinking and occasional, slight paw movement upon measurement conclusion (no signs of anesthetic mis-delivery); ICA failed to indicate response to stimulus"
35,EPI,cbv,/home/chymera/.scratch/drlfom/dw_l1/sub-5704/ses-ofMaF/sub-5704_ses-ofMaF_task-CogB_acq-EPI_run-0_cbv_tstat.nii.gz,0,ofMaF,5704,CogB,/home/chymera/.scratch/drlfom/dw_l1/sub-5704/ses-ofMaF/sub-5704_ses-ofMaF_task-CogB_acq-EPI_run-0_cbv_pstat.nii.gz,Vehicle,1.2771680355072021,1.3786239624023438,1.769652009010315,1.075157880783081,False,ICA failed to indicate response to stimulus
36,EPI,cbv,/home/chymera/.scratch/drlfom/dw_l1/sub-5704/ses-ofMcF1/sub-5704_ses-ofMcF1_task-CogB_acq-EPI_run-0_cbv_tstat.nii.gz,0,ofMcF1,5704,CogB,/home/chymera/.scratch/drlfom/dw_l1/sub-5704/ses-ofMcF1/sub-5704_ses-ofMcF1_task-CogB_acq-EPI_run-0_cbv_pstat.nii.gz,Vehicle,1.3506730794906616,1.4696568250656128,1.5747915506362915,1.149221658706665,False,ICA failed to indicate response to stimulus
37,EPI,cbv,/home/chymera/.scratch/drlfom/dw_l1/sub-5704/ses-ofMcF2/sub-5704_ses-ofMcF2_task-CogB_acq-EPI_run-0_cbv_tstat.nii.gz,0,ofMcF2,5704,CogB,/home/chymera/.scratch/drlfom/dw_l1/sub-5704/ses-ofMcF2/sub-5704_ses-ofMcF2_task-CogB_acq-EPI_run-0_cbv_pstat.nii.gz,Vehicle,0.9478691816329956,1.1893951892852783,1.5067564249038696,0.9334061741828918,False,ICA failed to indicate response to stimulus; fMRI started 15 minutes later than the usual delay after contrast agent administration; laser turned on for at least a minute during scan; no subsequent stimulation
38,EPI,cbv,/home/chymera/.scratch/drlfom/dw_l1/sub-5704/ses-ofMpF/sub-5704_ses-ofMpF_task-CogB_acq-EPI_run-0_cbv_tstat.nii.gz,0,ofMpF,5704,CogB,/home/chymera/.scratch/drlfom/dw_l1/sub-5704/ses-ofMpF/sub-5704_ses-ofMpF_task-CogB_acq-EPI_run-0_cbv_pstat.nii.gz,Vehicle,0.39848828315734863,0.5102653503417969,0.856157660484314,0.5157701373100281,False,ICA failed to indicate response to stimulus
39,EPI,cbv,/home/chymera/.scratch/drlfom/dw_l1/sub-5706/ses-ofM/sub-5706_ses-ofM_task-CogB_acq-EPI_run-0_cbv_tstat.nii.gz,0,ofM,5706,CogB,/home/chymera/.scratch/drlfom/dw_l1/sub-5706/ses-ofM/sub-5706_ses-ofM_task-CogB_acq-EPI_run-0_cbv_pstat.nii.gz,Vehicle,8.208534240722656,7.064549922943115,18.110830307006836,11.908714294433594,False,
40,EPI,cbv,/home/chymera/.scratch/drlfom/dw_l1/sub-5706/ses-ofMaF/sub-5706_ses-ofMaF_task-CogB_acq-EPI_run-0_cbv_tstat.nii.gz,0,ofMaF,5706,CogB,/home/chymera/.scratch/drlfom/dw_l1/sub-5706/ses-ofMaF/sub-5706_ses-ofMaF_task-CogB_acq-EPI_run-0_cbv_pstat.nii.gz,Vehicle,7.2463250160217285,6.951164722442627,15.694605827331543,11.568743705749512,False,
41,EPI,cbv,/home/chymera/.scratch/drlfom/dw_l1/sub-5706/ses-ofMcF1/sub-5706_ses-ofMcF1_task-CogB_acq-EPI_run-0_cbv_tstat.nii.gz,0,ofMcF1,5706,CogB,/home/chymera/.scratch/drlfom/dw_l1/sub-5706/ses-ofMcF1/sub-5706_ses-ofMcF1_task-CogB_acq-EPI_run-0_cbv_pstat.nii.gz,Vehicle,6.583167552947998,5.928587913513184,13.509451866149902,8.722831726074219,False,
42,EPI,cbv,/home/chymera/.scratch/drlfom/dw_l1/sub-5706/ses-ofMcF2/sub-5706_ses-ofMcF2_task-CogB_acq-EPI_run-0_cbv_tstat.nii.gz,0,ofMcF2,5706,CogB,/home/chymera/.scratch/drlfom/dw_l1/sub-5706/ses-ofMcF2/sub-5706_ses-ofMcF2_task-CogB_acq-EPI_run-0_cbv_pstat.nii.gz,Vehicle,4.548212051391602,3.8719801902770996,7.81793737411499,4.250971794128418,False,
43,EPI,cbv,/home/chymera/.scratch/drlfom/dw_l1/sub-5706/ses-ofMpF/sub-5706_ses-ofMpF_task-CogB_acq-EPI_run-0_cbv_tstat.nii.gz,0,ofMpF,5706,CogB,/home/chymera/.scratch/drlfom/dw_l1/sub-5706/ses-ofMpF/sub-5706_ses-ofMpF_task-CogB_acq-EPI_run-0_cbv_pstat.nii.gz,Vehicle,4.489940166473389,4.5694379806518555,7.341632843017578,5.578394889831543,False,
44,EPI,cbv,/home/chymera/.scratch/drlfom/dw_l1/sub-6255/ses-ofM/sub-6255_ses-ofM_task-CogB_acq-EPI_run-0_cbv_tstat.nii.gz,0,ofM,6255,CogB,/home/chymera/.scratch/drlfom/dw_l1/sub-6255/ses-ofM/sub-6255_ses-ofM_task-CogB_acq-EPI_run-0_cbv_pstat.nii.gz,Vehicle,3.8116650581359863,3.246464252471924,5.666567325592041,3.2239134311676025,False,
45,EPI,cbv,/home/chymera/.scratch/drlfom/dw_l1/sub-6255/ses-ofMaF/sub-6255_ses-ofMaF_task-CogB_acq-EPI_run-0_cbv_tstat.nii.gz,0,ofMaF,6255,CogB,/home/chymera/.scratch/drlfom/dw_l1/sub-6255/ses-ofMaF/sub-6255_ses-ofMaF_task-CogB_acq-EPI_run-0_cbv_pstat.nii.gz,Vehicle,2.5612592697143555,2.413360595703125,3.557969570159912,2.0995991230010986,False,
46,EPI,cbv,/home/chymera/.scratch/drlfom/dw_l1/sub-6255/ses-ofMcF1/sub-6255_ses-ofMcF1_task-CogB_acq-EPI_run-0_cbv_tstat.nii.gz,0,ofMcF1,6255,CogB,/home/chymera/.scratch/drlfom/dw_l1/sub-6255/ses-ofMcF1/sub-6255_ses-ofMcF1_task-CogB_acq-EPI_run-0_cbv_pstat.nii.gz,Vehicle,3.063063383102417,2.760915756225586,4.192171573638916,2.5350518226623535,False,
47,EPI,cbv,/home/chymera/.scratch/drlfom/dw_l1/sub-6255/ses-ofMcF2/sub-6255_ses-ofMcF2_task-CogB_acq-EPI_run-0_cbv_tstat.nii.gz,0,ofMcF2,6255,CogB,/home/chymera/.scratch/drlfom/dw_l1/sub-6255/ses-ofMcF2/sub-6255_ses-ofMcF2_task-CogB_acq-EPI_run-0_cbv_pstat.nii.gz,Vehicle,1.465254545211792,1.0418775081634521,2.3264238834381104,0.8273769021034241,False,
48,EPI,cbv,/home/chymera/.scratch/drlfom/dw_l1/sub-6262/ses-ofMcF1/sub-6262_ses-ofMcF1_task-CogB_acq-EPI_run-0_cbv_tstat.nii.gz,0,ofMcF1,6262,CogB,/home/chymera/.scratch/drlfom/dw_l1/sub-6262/ses-ofMcF1/sub-6262_ses-ofMcF1_task-CogB_acq-EPI_run-0_cbv_pstat.nii.gz,Vehicle,2.0027618408203125,1.5477097034454346,2.5573415756225586,1.215436339378357,False,
49,EPI,cbv,/home/chymera/.scratch/drlfom/dw_l1/sub-6262/ses-ofMcF2/sub-6262_ses-ofMcF2_task-CogB_acq-EPI_run-0_cbv_tstat.nii.gz,0,ofMcF2,6262,CogB,/home/chymera/.scratch/drlfom/dw_l1/sub-6262/ses-ofMcF2/sub-6262_ses-ofMcF2_task-CogB_acq-EPI_run-0_cbv_pstat.nii.gz,Vehicle,2.325957775115967,1.989746332168579,2.4666004180908203,1.6307880878448486,False,
50,EPI,cbv,/home/chymera/.scratch/drlfom/dw_l1/sub-6262/ses-ofMpF/sub-6262_ses-ofMpF_task-CogB_acq-EPI_run-0_cbv_tstat.nii.gz,0,ofMpF,6262,CogB,/home/chymera/.scratch/drlfom/dw_l1/sub-6262/ses-ofMpF/sub-6262_ses-ofMpF_task-CogB_acq-EPI_run-0_cbv_pstat.nii.gz,Vehicle,2.658675193786621,2.6818878650665283,4.045308589935303,2.432107925415039,False,
51,EPI,cbv,/home/chymera/.scratch/drlfom/dw_l1/sub-6455/ses-ofM/sub-6455_ses-ofM_task-CogB_acq-EPI_run-0_cbv_tstat.nii.gz,0,ofM,6455,CogB,/home/chymera/.scratch/drlfom/dw_l1/sub-6455/ses-ofM/sub-6455_ses-ofM_task-CogB_acq-EPI_run-0_cbv_pstat.nii.gz,Vehicle,2.1895804405212402,1.4610559940338135,4.023929595947266,1.142211675643921,False,"blinking and occasional, slight paw movement upon measurement conclusion (no signs of anesthetic mis-delivery)"
52,EPI,cbv,/home/chymera/.scratch/drlfom/dw_l1/sub-6455/ses-ofMaF/sub-6455_ses-ofMaF_task-CogB_acq-EPI_run-0_cbv_tstat.nii.gz,0,ofMaF,6455,CogB,/home/chymera/.scratch/drlfom/dw_l1/sub-6455/ses-ofMaF/sub-6455_ses-ofMaF_task-CogB_acq-EPI_run-0_cbv_pstat.nii.gz,Vehicle,3.2258987426757812,2.416121006011963,5.768581390380859,2.10237979888916,False,
53,EPI,cbv,/home/chymera/.scratch/drlfom/dw_l1/sub-6455/ses-ofMcF1/sub-6455_ses-ofMcF1_task-CogB_acq-EPI_run-0_cbv_tstat.nii.gz,0,ofMcF1,6455,CogB,/home/chymera/.scratch/drlfom/dw_l1/sub-6455/ses-ofMcF1/sub-6455_ses-ofMcF1_task-CogB_acq-EPI_run-0_cbv_pstat.nii.gz,Vehicle,2.444216728210449,2.2177255153656006,2.800349712371826,1.874470591545105,False,
54,EPI,cbv,/home/chymera/.scratch/drlfom/dw_l1/sub-6455/ses-ofMcF2/sub-6455_ses-ofMcF2_task-CogB_acq-EPI_run-0_cbv_tstat.nii.gz,0,ofMcF2,6455,CogB,/home/chymera/.scratch/drlfom/dw_l1/sub-6455/ses-ofMcF2/sub-6455_ses-ofMcF2_task-CogB_acq-EPI_run-0_cbv_pstat.nii.gz,Vehicle,2.773483991622925,1.5032634735107422,5.2187628746032715,1.1772491931915283,False,
55,EPI,cbv,/home/chymera/.scratch/drlfom/dw_l1/sub-6455/ses-ofMpF/sub-6455_ses-ofMpF_task-CogB_acq-EPI_run-0_cbv_tstat.nii.gz,0,ofMpF,6455,CogB,/home/chymera/.scratch/drlfom/dw_l1/sub-6455/ses-ofMpF/sub-6455_ses-ofMpF_task-CogB_acq-EPI_run-0_cbv_pstat.nii.gz,Vehicle,2.8938255310058594,2.4807331562042236,4.77203893661499,2.180006980895996,False,
56,EPI,cbv,/home/chymera/.scratch/drlfom/dw_l1/sub-6456/ses-ofM/sub-6456_ses-ofM_task-CogB_acq-EPI_run-0_cbv_tstat.nii.gz,0,ofM,6456,CogB,/home/chymera/.scratch/drlfom/dw_l1/sub-6456/ses-ofM/sub-6456_ses-ofM_task-CogB_acq-EPI_run-0_cbv_pstat.nii.gz,Fluoxetine,1.7549893856048584,1.0803704261779785,3.4761998653411865,0.8538312315940857,False,
57,EPI,cbv,/home/chymera/.scratch/drlfom/dw_l1/sub-6456/ses-ofMaF/sub-6456_ses-ofMaF_task-CogB_acq-EPI_run-0_cbv_tstat.nii.gz,0,ofMaF,6456,CogB,/home/chymera/.scratch/drlfom/dw_l1/sub-6456/ses-ofMaF/sub-6456_ses-ofMaF_task-CogB_acq-EPI_run-0_cbv_pstat.nii.gz,Fluoxetine,4.458104610443115,3.723362922668457,8.740147590637207,3.992269515991211,False,
58,EPI,cbv,/home/chymera/.scratch/drlfom/dw_l1/sub-6456/ses-ofMcF1/sub-6456_ses-ofMcF1_task-CogB_acq-EPI_run-0_cbv_tstat.nii.gz,0,ofMcF1,6456,CogB,/home/chymera/.scratch/drlfom/dw_l1/sub-6456/ses-ofMcF1/sub-6456_ses-ofMcF1_task-CogB_acq-EPI_run-0_cbv_pstat.nii.gz,Fluoxetine,4.772518157958984,3.8126635551452637,9.312374114990234,4.147005081176758,False,
59,EPI,cbv,/home/chymera/.scratch/drlfom/dw_l1/sub-6456/ses-ofMcF2/sub-6456_ses-ofMcF2_task-CogB_acq-EPI_run-0_cbv_tstat.nii.gz,0,ofMcF2,6456,CogB,/home/chymera/.scratch/drlfom/dw_l1/sub-6456/ses-ofMcF2/sub-6456_ses-ofMcF2_task-CogB_acq-EPI_run-0_cbv_pstat.nii.gz,Fluoxetine,8.451643943786621,6.7939252853393555,17.5768985748291,11.105502128601074,False,
60,EPI,cbv,/home/chymera/.scratch/drlfom/dw_l1/sub-6456/ses-ofMpF/sub-6456_ses-ofMpF_task-CogB_acq-EPI_run-0_cbv_tstat.nii.gz,0,ofMpF,6456,CogB,/home/chymera/.scratch/drlfom/dw_l1/sub-6456/ses-ofMpF/sub-6456_ses-ofMpF_task-CogB_acq-EPI_run-0_cbv_pstat.nii.gz,Fluoxetine,3.0138330459594727,2.0049545764923096,6.171288013458252,1.6464500427246094,False,
61,EPI,cbv,/home/chymera/.scratch/drlfom/dw_l1/sub-6459/ses-ofM/sub-6459_ses-ofM_task-CogB_acq-EPI_run-0_cbv_tstat.nii.gz,0,ofM,6459,CogB,/home/chymera/.scratch/drlfom/dw_l1/sub-6459/ses-ofM/sub-6459_ses-ofM_task-CogB_acq-EPI_run-0_cbv_pstat.nii.gz,Vehicle,1.6778924465179443,0.8453793525695801,3.6561405658721924,0.7017611265182495,False,
62,EPI,cbv,/home/chymera/.scratch/drlfom/dw_l1/sub-6459/ses-ofMaF/sub-6459_ses-ofMaF_task-CogB_acq-EPI_run-0_cbv_tstat.nii.gz,0,ofMaF,6459,CogB,/home/chymera/.scratch/drlfom/dw_l1/sub-6459/ses-ofMaF/sub-6459_ses-ofMaF_task-CogB_acq-EPI_run-0_cbv_pstat.nii.gz,Vehicle,2.1344616413116455,1.420195460319519,3.825415849685669,1.1085858345031738,False,
63,EPI,cbv,/home/chymera/.scratch/drlfom/dw_l1/sub-6459/ses-ofMcF1/sub-6459_ses-ofMcF1_task-CogB_acq-EPI_run-0_cbv_tstat.nii.gz,0,ofMcF1,6459,CogB,/home/chymera/.scratch/drlfom/dw_l1/sub-6459/ses-ofMcF1/sub-6459_ses-ofMcF1_task-CogB_acq-EPI_run-0_cbv_pstat.nii.gz,Vehicle,1.0743792057037354,0.6449133157730103,2.0517609119415283,0.586178183555603,False,
64,EPI,cbv,/home/chymera/.scratch/drlfom/dw_l1/sub-6459/ses-ofMcF2/sub-6459_ses-ofMcF2_task-CogB_acq-EPI_run-0_cbv_tstat.nii.gz,0,ofMcF2,6459,CogB,/home/chymera/.scratch/drlfom/dw_l1/sub-6459/ses-ofMcF2/sub-6459_ses-ofMcF2_task-CogB_acq-EPI_run-0_cbv_pstat.nii.gz,Vehicle,1.139948844909668,0.9715256690979004,1.9975645542144775,0.7810958623886108,False,
65,EPI,cbv,/home/chymera/.scratch/drlfom/dw_l1/sub-6459/ses-ofMpF/sub-6459_ses-ofMpF_task-CogB_acq-EPI_run-0_cbv_tstat.nii.gz,0,ofMpF,6459,CogB,/home/chymera/.scratch/drlfom/dw_l1/sub-6459/ses-ofMpF/sub-6459_ses-ofMpF_task-CogB_acq-EPI_run-0_cbv_pstat.nii.gz,Vehicle,0.875278115272522,0.7862364649772644,1.0836718082427979,0.6657096147537231,False,
66,EPI,cbv,/home/chymera/.scratch/drlfom/dw_l1/sub-6460/ses-ofM/sub-6460_ses-ofM_task-CogB_acq-EPI_run-0_cbv_tstat.nii.gz,0,ofM,6460,CogB,/home/chymera/.scratch/drlfom/dw_l1/sub-6460/ses-ofM/sub-6460_ses-ofM_task-CogB_acq-EPI_run-0_cbv_pstat.nii.gz,Fluoxetine,3.2467892169952393,3.1566553115844727,5.965778827667236,3.0897159576416016,False,
67,EPI,cbv,/home/chymera/.scratch/drlfom/dw_l1/sub-6460/ses-ofMaF/sub-6460_ses-ofMaF_task-CogB_acq-EPI_run-0_cbv_tstat.nii.gz,0,ofMaF,6460,CogB,/home/chymera/.scratch/drlfom/dw_l1/sub-6460/ses-ofMaF/sub-6460_ses-ofMaF_task-CogB_acq-EPI_run-0_cbv_pstat.nii.gz,Fluoxetine,2.4904356002807617,1.552863359451294,4.559521198272705,1.2241628170013428,False,pushed Endorem in with air
68,EPI,cbv,/home/chymera/.scratch/drlfom/dw_l1/sub-6460/ses-ofMcF1/sub-6460_ses-ofMcF1_task-CogB_acq-EPI_run-0_cbv_tstat.nii.gz,0,ofMcF1,6460,CogB,/home/chymera/.scratch/drlfom/dw_l1/sub-6460/ses-ofMcF1/sub-6460_ses-ofMcF1_task-CogB_acq-EPI_run-0_cbv_pstat.nii.gz,Fluoxetine,1.9256246089935303,1.9271605014801025,2.4113974571228027,1.5674431324005127,True,incomplete Endorem delivery
69,EPI,bold,/home/chymera/.scratch/drlfom/dw_l1/sub-6460/ses-ofMcF2/sub-6460_ses-ofMcF2_task-CogB_acq-EPI_run-0_bold_tstat.nii.gz,0,ofMcF2,6460,CogB,/home/chymera/.scratch/drlfom/dw_l1/sub-6460/ses-ofMcF2/sub-6460_ses-ofMcF2_task-CogB_acq-EPI_run-0_bold_pstat.nii.gz,Fluoxetine,-0.24847961962223053,-0.3518502116203308,0.8611546754837036,0.19555051624774933,False,
70,EPI,cbv,/home/chymera/.scratch/drlfom/dw_l1/sub-6461/ses-ofM/sub-6461_ses-ofM_task-CogB_acq-EPI_run-0_cbv_tstat.nii.gz,0,ofM,6461,CogB,/home/chymera/.scratch/drlfom/dw_l1/sub-6461/ses-ofM/sub-6461_ses-ofM_task-CogB_acq-EPI_run-0_cbv_pstat.nii.gz,Fluoxetine,4.08374547958374,3.4675979614257812,7.406856060028076,3.5688047409057617,False,
71,EPI,cbv,/home/chymera/.scratch/drlfom/dw_l1/sub-6461/ses-ofMaF/sub-6461_ses-ofMaF_task-CogB_acq-EPI_run-0_cbv_tstat.nii.gz,0,ofMaF,6461,CogB,/home/chymera/.scratch/drlfom/dw_l1/sub-6461/ses-ofMaF/sub-6461_ses-ofMaF_task-CogB_acq-EPI_run-0_cbv_pstat.nii.gz,Fluoxetine,0.6182733178138733,0.8835755586624146,0.9513718485832214,0.7246236205101013,True,maintained isoflurane at 1.5%% during measurement
72,EPI,cbv,/home/chymera/.scratch/drlfom/dw_l1/sub-6461/ses-ofMcF1/sub-6461_ses-ofMcF1_task-CogB_acq-EPI_run-0_cbv_tstat.nii.gz,0,ofMcF1,6461,CogB,/home/chymera/.scratch/drlfom/dw_l1/sub-6461/ses-ofMcF1/sub-6461_ses-ofMcF1_task-CogB_acq-EPI_run-0_cbv_pstat.nii.gz,Fluoxetine,4.624434947967529,5.144437789916992,7.4177422523498535,6.818845748901367,False,
73,EPI,cbv,/home/chymera/.scratch/drlfom/dw_l1/sub-6461/ses-ofMcF2/sub-6461_ses-ofMcF2_task-CogB_acq-EPI_run-0_cbv_tstat.nii.gz,0,ofMcF2,6461,CogB,/home/chymera/.scratch/drlfom/dw_l1/sub-6461/ses-ofMcF2/sub-6461_ses-ofMcF2_task-CogB_acq-EPI_run-0_cbv_pstat.nii.gz,Fluoxetine,3.3400683403015137,3.426135778427124,4.485799789428711,3.5025768280029297,False,
74,EPI,cbv,/home/chymera/.scratch/drlfom/dw_l1/sub-6461/ses-ofMpF/sub-6461_ses-ofMpF_task-CogB_acq-EPI_run-0_cbv_tstat.nii.gz,0,ofMpF,6461,CogB,/home/chymera/.scratch/drlfom/dw_l1/sub-6461/ses-ofMpF/sub-6461_ses-ofMpF_task-CogB_acq-EPI_run-0_cbv_pstat.nii.gz,Fluoxetine,2.0981147289276123,1.9645404815673828,2.555549144744873,1.605885624885559,False,"blinking and occasional, slight paw movement upon measurement conclusion (no signs of anesthetic mis-delivery); implant detached right after measurement"
75,EPI,cbv,/home/chymera/.scratch/drlfom/dw_l1/sub-6462/ses-ofM/sub-6462_ses-ofM_task-CogB_acq-EPI_run-0_cbv_tstat.nii.gz,0,ofM,6462,CogB,/home/chymera/.scratch/drlfom/dw_l1/sub-6462/ses-ofM/sub-6462_ses-ofM_task-CogB_acq-EPI_run-0_cbv_pstat.nii.gz,Fluoxetine,3.769009828567505,2.448146343231201,7.4742751121521,2.1417126655578613,False,
76,EPI,cbv,/home/chymera/.scratch/drlfom/dw_l1/sub-6462/ses-ofMaF/sub-6462_ses-ofMaF_task-CogB_acq-EPI_run-0_cbv_tstat.nii.gz,0,ofMaF,6462,CogB,/home/chymera/.scratch/drlfom/dw_l1/sub-6462/ses-ofMaF/sub-6462_ses-ofMaF_task-CogB_acq-EPI_run-0_cbv_pstat.nii.gz,Fluoxetine,2.385315418243408,1.4784727096557617,3.732635498046875,1.1568547487258911,False,"strongly lateralized response, uncommon given protocol; dental cement fixture slightly cracked, implant not loose"
77,EPI,bold,/home/chymera/.scratch/drlfom/dw_l1/sub-6462/ses-ofMcF1/sub-6462_ses-ofMcF1_task-CogB_acq-EPI_run-0_bold_tstat.nii.gz,0,ofMcF1,6462,CogB,/home/chymera/.scratch/drlfom/dw_l1/sub-6462/ses-ofMcF1/sub-6462_ses-ofMcF1_task-CogB_acq-EPI_run-0_bold_pstat.nii.gz,Fluoxetine,-0.9423328638076782,-0.6021631956100464,0.3474196791648865,0.1388312578201294,False,
78,EPI,bold,/home/chymera/.scratch/drlfom/dw_l1/sub-6462/ses-ofMcF2/sub-6462_ses-ofMcF2_task-CogB_acq-EPI_run-0_bold_tstat.nii.gz,0,ofMcF2,6462,CogB,/home/chymera/.scratch/drlfom/dw_l1/sub-6462/ses-ofMcF2/sub-6462_ses-ofMcF2_task-CogB_acq-EPI_run-0_bold_pstat.nii.gz,Fluoxetine,-0.4341689646244049,-0.2650950253009796,0.7812357544898987,0.23652803897857666,False,
79,EPI,cbv,/home/chymera/.scratch/drlfom/dw_l1/sub-6530/ses-ofM/sub-6530_ses-ofM_task-CogB_acq-EPI_run-0_cbv_tstat.nii.gz,0,ofM,6530,CogB,/home/chymera/.scratch/drlfom/dw_l1/sub-6530/ses-ofM/sub-6530_ses-ofM_task-CogB_acq-EPI_run-0_cbv_pstat.nii.gz,Fluoxetine,2.4555118083953857,1.6902233362197876,3.886326313018799,1.3412508964538574,False,session timestamp recorded at induction to maintenance anesthesia switch
80,EPI,cbv,/home/chymera/.scratch/drlfom/dw_l1/sub-6530/ses-ofMaF/sub-6530_ses-ofMaF_task-CogB_acq-EPI_run-0_cbv_tstat.nii.gz,0,ofMaF,6530,CogB,/home/chymera/.scratch/drlfom/dw_l1/sub-6530/ses-ofMaF/sub-6530_ses-ofMaF_task-CogB_acq-EPI_run-0_cbv_pstat.nii.gz,Fluoxetine,2.449033260345459,2.523125171661377,2.742532730102539,2.231595516204834,False,
81,EPI,cbv,/home/chymera/.scratch/drlfom/dw_l1/sub-6530/ses-ofMcF1/sub-6530_ses-ofMcF1_task-CogB_acq-EPI_run-0_cbv_tstat.nii.gz,0,ofMcF1,6530,CogB,/home/chymera/.scratch/drlfom/dw_l1/sub-6530/ses-ofMcF1/sub-6530_ses-ofMcF1_task-CogB_acq-EPI_run-0_cbv_pstat.nii.gz,Fluoxetine,1.3546090126037598,1.342329978942871,2.442491292953491,1.0465691089630127,False,
82,EPI,cbv,/home/chymera/.scratch/drlfom/dw_l1/sub-6530/ses-ofMcF2/sub-6530_ses-ofMcF2_task-CogB_acq-EPI_run-0_cbv_tstat.nii.gz,0,ofMcF2,6530,CogB,/home/chymera/.scratch/drlfom/dw_l1/sub-6530/ses-ofMcF2/sub-6530_ses-ofMcF2_task-CogB_acq-EPI_run-0_cbv_pstat.nii.gz,Fluoxetine,2.861241579055786,3.04960298538208,3.7610349655151367,2.933411121368408,False,"rapid breathing, blinking, and whisker movement upon measurement conclusion (no signs of anesthetic mis-delivery)"
83,EPI,cbv,/home/chymera/.scratch/drlfom/dw_l1/sub-6530/ses-ofMpF/sub-6530_ses-ofMpF_task-CogB_acq-EPI_run-0_cbv_tstat.nii.gz,0,ofMpF,6530,CogB,/home/chymera/.scratch/drlfom/dw_l1/sub-6530/ses-ofMpF/sub-6530_ses-ofMpF_task-CogB_acq-EPI_run-0_cbv_pstat.nii.gz,Fluoxetine,0.5732953548431396,0.3296385407447815,1.0240269899368286,0.4308779835700989,False,"CBV fMRI post-Endorem delay 15 minutes longer than protocol; rapid breathing, blinking, flinching, and whisker movement upon measurement conclusion (no signs of anesthetic mis-delivery)"
84,EPI,cbv,/home/chymera/.scratch/drlfom/dw_l1/sub-6532/ses-ofM/sub-6532_ses-ofM_task-CogB_acq-EPI_run-0_cbv_tstat.nii.gz,0,ofM,6532,CogB,/home/chymera/.scratch/drlfom/dw_l1/sub-6532/ses-ofM/sub-6532_ses-ofM_task-CogB_acq-EPI_run-0_cbv_pstat.nii.gz,Vehicle,0.8296191096305847,0.6693618893623352,1.2139744758605957,0.6003367900848389,False,"open female cages in close proximity prior to measurement; rapid breathing, blinking, and whisker movement upon measurement conclusion (no signs of anesthetic mis-delivery)"
85,EPI,cbv,/home/chymera/.scratch/drlfom/dw_l1/sub-6532/ses-ofMaF/sub-6532_ses-ofMaF_task-CogB_acq-EPI_run-0_cbv_tstat.nii.gz,0,ofMaF,6532,CogB,/home/chymera/.scratch/drlfom/dw_l1/sub-6532/ses-ofMaF/sub-6532_ses-ofMaF_task-CogB_acq-EPI_run-0_cbv_pstat.nii.gz,Vehicle,1.2267011404037476,1.1237154006958008,1.5253357887268066,0.8838983178138733,False,flinching (signs of partial Medetomidine anesthesia mis-delivery)
86,EPI,cbv,/home/chymera/.scratch/drlfom/dw_l1/sub-6532/ses-ofMcF1/sub-6532_ses-ofMcF1_task-CogB_acq-EPI_run-0_cbv_tstat.nii.gz,0,ofMcF1,6532,CogB,/home/chymera/.scratch/drlfom/dw_l1/sub-6532/ses-ofMcF1/sub-6532_ses-ofMcF1_task-CogB_acq-EPI_run-0_cbv_pstat.nii.gz,Vehicle,0.30107441544532776,0.5850849151611328,0.8049939274787903,0.5541855096817017,True,maintained isoflurane at 1.5%% during measurement
87,EPI,cbv,/home/chymera/.scratch/drlfom/dw_l1/sub-6532/ses-ofMcF2/sub-6532_ses-ofMcF2_task-CogB_acq-EPI_run-0_cbv_tstat.nii.gz,0,ofMcF2,6532,CogB,/home/chymera/.scratch/drlfom/dw_l1/sub-6532/ses-ofMcF2/sub-6532_ses-ofMcF2_task-CogB_acq-EPI_run-0_cbv_pstat.nii.gz,Vehicle,0.34202924370765686,0.3361649513244629,0.9192882776260376,0.43394455313682556,False,
88,EPI,cbv,/home/chymera/.scratch/drlfom/dw_l1/sub-6532/ses-ofMpF/sub-6532_ses-ofMpF_task-CogB_acq-EPI_run-0_cbv_tstat.nii.gz,0,ofMpF,6532,CogB,/home/chymera/.scratch/drlfom/dw_l1/sub-6532/ses-ofMpF/sub-6532_ses-ofMpF_task-CogB_acq-EPI_run-0_cbv_pstat.nii.gz,Vehicle,0.30269762873649597,0.5681174993515015,0.9040033221244812,0.5451615452766418,False,
89,EPI,cbv,/home/chymera/.scratch/drlfom/dw_l1/sub-6542/ses-ofM/sub-6542_ses-ofM_task-CogB_acq-EPI_run-0_cbv_tstat.nii.gz,0,ofM,6542,CogB,/home/chymera/.scratch/drlfom/dw_l1/sub-6542/ses-ofM/sub-6542_ses-ofM_task-CogB_acq-EPI_run-0_cbv_pstat.nii.gz,Fluoxetine,4.990901470184326,4.186168193817139,9.551483154296875,4.823678016662598,False,
90,EPI,cbv,/home/chymera/.scratch/drlfom/dw_l1/sub-6542/ses-ofMaF/sub-6542_ses-ofMaF_task-CogB_acq-EPI_run-0_cbv_tstat.nii.gz,0,ofMaF,6542,CogB,/home/chymera/.scratch/drlfom/dw_l1/sub-6542/ses-ofMaF/sub-6542_ses-ofMaF_task-CogB_acq-EPI_run-0_cbv_pstat.nii.gz,Fluoxetine,3.5553395748138428,3.972109794616699,5.550642967224121,4.428170204162598,False,
91,EPI,cbv,/home/chymera/.scratch/drlfom/dw_l1/sub-6542/ses-ofMcF1/sub-6542_ses-ofMcF1_task-CogB_acq-EPI_run-0_cbv_tstat.nii.gz,0,ofMcF1,6542,CogB,/home/chymera/.scratch/drlfom/dw_l1/sub-6542/ses-ofMcF1/sub-6542_ses-ofMcF1_task-CogB_acq-EPI_run-0_cbv_pstat.nii.gz,Fluoxetine,7.261432647705078,5.787502288818359,16.13513946533203,8.36221694946289,False,session timestamp recorded at induction to maintenance anesthesia switch
92,EPI,cbv,/home/chymera/.scratch/drlfom/dw_l1/sub-6542/ses-ofMcF2/sub-6542_ses-ofMcF2_task-CogB_acq-EPI_run-0_cbv_tstat.nii.gz,0,ofMcF2,6542,CogB,/home/chymera/.scratch/drlfom/dw_l1/sub-6542/ses-ofMcF2/sub-6542_ses-ofMcF2_task-CogB_acq-EPI_run-0_cbv_pstat.nii.gz,Fluoxetine,9.008950233459473,7.775578498840332,19.721406936645508,14.159957885742188,False,possibly missing stimulation events (Laser was found in interlock state on the subsequent scan)
93,EPI,cbv,/home/chymera/.scratch/drlfom/dw_l1/sub-6542/ses-ofMpF/sub-6542_ses-ofMpF_task-CogB_acq-EPI_run-0_cbv_tstat.nii.gz,0,ofMpF,6542,CogB,/home/chymera/.scratch/drlfom/dw_l1/sub-6542/ses-ofMpF/sub-6542_ses-ofMpF_task-CogB_acq-EPI_run-0_cbv_pstat.nii.gz,Fluoxetine,3.193901777267456,1.89423406124115,6.77803897857666,1.5363627672195435,False,
94,EPI,cbv,/home/chymera/.scratch/drlfom/dw_l1/sub-6548/ses-ofM/sub-6548_ses-ofM_task-CogB_acq-EPI_run-0_cbv_tstat.nii.gz,0,ofM,6548,CogB,/home/chymera/.scratch/drlfom/dw_l1/sub-6548/ses-ofM/sub-6548_ses-ofM_task-CogB_acq-EPI_run-0_cbv_pstat.nii.gz,Fluoxetine,2.9545953273773193,2.4889795780181885,4.9340500831604,2.1899261474609375,False,session timestamp recorded at induction to maintenance anesthesia switch
95,EPI,cbv,/home/chymera/.scratch/drlfom/dw_l1/sub-6548/ses-ofMaF/sub-6548_ses-ofMaF_task-CogB_acq-EPI_run-0_cbv_tstat.nii.gz,0,ofMaF,6548,CogB,/home/chymera/.scratch/drlfom/dw_l1/sub-6548/ses-ofMaF/sub-6548_ses-ofMaF_task-CogB_acq-EPI_run-0_cbv_pstat.nii.gz,Fluoxetine,2.1072216033935547,1.3266069889068604,3.9313652515411377,1.0347955226898193,False,
96,EPI,cbv,/home/chymera/.scratch/drlfom/dw_l1/sub-6548/ses-ofMcF1/sub-6548_ses-ofMcF1_task-CogB_acq-EPI_run-0_cbv_tstat.nii.gz,0,ofMcF1,6548,CogB,/home/chymera/.scratch/drlfom/dw_l1/sub-6548/ses-ofMcF1/sub-6548_ses-ofMcF1_task-CogB_acq-EPI_run-0_cbv_pstat.nii.gz,Fluoxetine,5.0666022300720215,4.664989471435547,10.603266716003418,5.775704383850098,False,
97,EPI,cbv,/home/chymera/.scratch/drlfom/dw_l1/sub-6548/ses-ofMcF2/sub-6548_ses-ofMcF2_task-CogB_acq-EPI_run-0_cbv_tstat.nii.gz,0,ofMcF2,6548,CogB,/home/chymera/.scratch/drlfom/dw_l1/sub-6548/ses-ofMcF2/sub-6548_ses-ofMcF2_task-CogB_acq-EPI_run-0_cbv_pstat.nii.gz,Fluoxetine,1.2479698657989502,1.436457872390747,1.7447006702423096,1.1218836307525635,True,maintained isoflurane at 1.5%% during measurement
98,EPI,cbv,/home/chymera/.scratch/drlfom/dw_l1/sub-6548/ses-ofMpF/sub-6548_ses-ofMpF_task-CogB_acq-EPI_run-0_cbv_tstat.nii.gz,0,ofMpF,6548,CogB,/home/chymera/.scratch/drlfom/dw_l1/sub-6548/ses-ofMpF/sub-6548_ses-ofMpF_task-CogB_acq-EPI_run-0_cbv_pstat.nii.gz,Fluoxetine,0.004445050377398729,0.001526717096567154,1.0350580215454102,0.3026638627052307,False,
99,EPI,cbv,/home/chymera/.scratch/drlfom/dw_l1/sub-6549/ses-ofM/sub-6549_ses-ofM_task-CogB_acq-EPI_run-0_cbv_tstat.nii.gz,0,ofM,6549,CogB,/home/chymera/.scratch/drlfom/dw_l1/sub-6549/ses-ofM/sub-6549_ses-ofM_task-CogB_acq-EPI_run-0_cbv_pstat.nii.gz,Fluoxetine,0.4559357166290283,0.5993480086326599,1.4716802835464478,0.5690661668777466,False,
100,EPI,cbv,/home/chymera/.scratch/drlfom/dw_l1/sub-6549/ses-ofMaF/sub-6549_ses-ofMaF_task-CogB_acq-EPI_run-0_cbv_tstat.nii.gz,0,ofMaF,6549,CogB,/home/chymera/.scratch/drlfom/dw_l1/sub-6549/ses-ofMaF/sub-6549_ses-ofMaF_task-CogB_acq-EPI_run-0_cbv_pstat.nii.gz,Fluoxetine,2.6686770915985107,2.704578399658203,4.760749340057373,2.461216688156128,False,
101,EPI,cbv,/home/chymera/.scratch/drlfom/dw_l1/sub-6549/ses-ofMcF1/sub-6549_ses-ofMcF1_task-CogB_acq-EPI_run-0_cbv_tstat.nii.gz,0,ofMcF1,6549,CogB,/home/chymera/.scratch/drlfom/dw_l1/sub-6549/ses-ofMcF1/sub-6549_ses-ofMcF1_task-CogB_acq-EPI_run-0_cbv_pstat.nii.gz,Fluoxetine,2.6180782318115234,2.7513773441314697,5.831691265106201,3.026663064956665,False,
102,EPI,cbv,/home/chymera/.scratch/drlfom/dw_l1/sub-6549/ses-ofMcF2/sub-6549_ses-ofMcF2_task-CogB_acq-EPI_run-0_cbv_tstat.nii.gz,0,ofMcF2,6549,CogB,/home/chymera/.scratch/drlfom/dw_l1/sub-6549/ses-ofMcF2/sub-6549_ses-ofMcF2_task-CogB_acq-EPI_run-0_cbv_pstat.nii.gz,Fluoxetine,2.8905887603759766,2.333858013153076,4.321722984313965,2.0058069229125977,False,
103,EPI,cbv,/home/chymera/.scratch/drlfom/dw_l1/sub-6549/ses-ofMpF/sub-6549_ses-ofMpF_task-CogB_acq-EPI_run-0_cbv_tstat.nii.gz,0,ofMpF,6549,CogB,/home/chymera/.scratch/drlfom/dw_l1/sub-6549/ses-ofMpF/sub-6549_ses-ofMpF_task-CogB_acq-EPI_run-0_cbv_pstat.nii.gz,Fluoxetine,1.7904058694839478,1.8567183017730713,2.050614356994629,1.497964859008789,True,maintained isoflurane at 1.5%% during measurement
104,EPI,cbv,/home/chymera/.scratch/drlfom/dw_l1/sub-6552/ses-ofM/sub-6552_ses-ofM_task-CogB_acq-EPI_run-0_cbv_tstat.nii.gz,0,ofM,6552,CogB,/home/chymera/.scratch/drlfom/dw_l1/sub-6552/ses-ofM/sub-6552_ses-ofM_task-CogB_acq-EPI_run-0_cbv_pstat.nii.gz,Vehicle,5.1760077476501465,4.542675018310547,9.556706428527832,5.523161888122559,False,
105,EPI,cbv,/home/chymera/.scratch/drlfom/dw_l1/sub-6552/ses-ofMaF/sub-6552_ses-ofMaF_task-CogB_acq-EPI_run-0_cbv_tstat.nii.gz,0,ofMaF,6552,CogB,/home/chymera/.scratch/drlfom/dw_l1/sub-6552/ses-ofMaF/sub-6552_ses-ofMaF_task-CogB_acq-EPI_run-0_cbv_pstat.nii.gz,Vehicle,3.8136818408966064,2.834754467010498,6.938694000244141,2.635003089904785,False,
106,EPI,cbv,/home/chymera/.scratch/drlfom/dw_l1/sub-6552/ses-ofMcF1/sub-6552_ses-ofMcF1_task-CogB_acq-EPI_run-0_cbv_tstat.nii.gz,0,ofMcF1,6552,CogB,/home/chymera/.scratch/drlfom/dw_l1/sub-6552/ses-ofMcF1/sub-6552_ses-ofMcF1_task-CogB_acq-EPI_run-0_cbv_pstat.nii.gz,Vehicle,2.8107242584228516,2.424672842025757,5.01909875869751,2.113006591796875,False,
107,EPI,cbv,/home/chymera/.scratch/drlfom/dw_l1/sub-6552/ses-ofMcF2/sub-6552_ses-ofMcF2_task-CogB_acq-EPI_run-0_cbv_tstat.nii.gz,0,ofMcF2,6552,CogB,/home/chymera/.scratch/drlfom/dw_l1/sub-6552/ses-ofMcF2/sub-6552_ses-ofMcF2_task-CogB_acq-EPI_run-0_cbv_pstat.nii.gz,Vehicle,2.455770492553711,1.7716455459594727,3.589808225631714,1.4165098667144775,False,
108,EPI,cbv,/home/chymera/.scratch/drlfom/dw_l1/sub-6552/ses-ofMpF/sub-6552_ses-ofMpF_task-CogB_acq-EPI_run-0_cbv_tstat.nii.gz,0,ofMpF,6552,CogB,/home/chymera/.scratch/drlfom/dw_l1/sub-6552/ses-ofMpF/sub-6552_ses-ofMpF_task-CogB_acq-EPI_run-0_cbv_pstat.nii.gz,Vehicle,2.323728084564209,1.8979792594909668,3.4383585453033447,1.538426399230957,False,
109,EPI,cbv,/home/chymera/.scratch/drlfom/dw_l1/sub-6553/ses-ofM/sub-6553_ses-ofM_task-CogB_acq-EPI_run-0_cbv_tstat.nii.gz,0,ofM,6553,CogB,/home/chymera/.scratch/drlfom/dw_l1/sub-6553/ses-ofM/sub-6553_ses-ofM_task-CogB_acq-EPI_run-0_cbv_pstat.nii.gz,Vehicle,1.062561273574829,0.7521438598632812,1.7843509912490845,0.6458272933959961,False,
110,EPI,cbv,/home/chymera/.scratch/drlfom/dw_l1/sub-6553/ses-ofMaF/sub-6553_ses-ofMaF_task-CogB_acq-EPI_run-0_cbv_tstat.nii.gz,0,ofMaF,6553,CogB,/home/chymera/.scratch/drlfom/dw_l1/sub-6553/ses-ofMaF/sub-6553_ses-ofMaF_task-CogB_acq-EPI_run-0_cbv_pstat.nii.gz,Vehicle,1.6872104406356812,1.6942505836486816,1.8903045654296875,1.3447389602661133,False,
111,EPI,cbv,/home/chymera/.scratch/drlfom/dw_l1/sub-6553/ses-ofMcF1/sub-6553_ses-ofMcF1_task-CogB_acq-EPI_run-0_cbv_tstat.nii.gz,0,ofMcF1,6553,CogB,/home/chymera/.scratch/drlfom/dw_l1/sub-6553/ses-ofMcF1/sub-6553_ses-ofMcF1_task-CogB_acq-EPI_run-0_cbv_pstat.nii.gz,Vehicle,2.712583303451538,2.761526584625244,3.7532243728637695,2.5360231399536133,False,
112,EPI,cbv,/home/chymera/.scratch/drlfom/dw_l1/sub-6553/ses-ofMcF2/sub-6553_ses-ofMcF2_task-CogB_acq-EPI_run-0_cbv_tstat.nii.gz,0,ofMcF2,6553,CogB,/home/chymera/.scratch/drlfom/dw_l1/sub-6553/ses-ofMcF2/sub-6553_ses-ofMcF2_task-CogB_acq-EPI_run-0_cbv_pstat.nii.gz,Vehicle,1.146650791168213,1.061469316482544,1.53292977809906,0.8406727313995361,False,"rapid breathing, blinking, and whisker movement upon measurement conclusion (no signs of anesthetic mis-delivery); rapid breathing, blinking, and whisker movement upon measurement conclusion (no signs of anesthetic mis-delivery)"
113,EPI,cbv,/home/chymera/.scratch/drlfom/dw_l1/sub-6553/ses-ofMpF/sub-6553_ses-ofMpF_task-CogB_acq-EPI_run-0_cbv_tstat.nii.gz,0,ofMpF,6553,CogB,/home/chymera/.scratch/drlfom/dw_l1/sub-6553/ses-ofMpF/sub-6553_ses-ofMpF_task-CogB_acq-EPI_run-0_cbv_pstat.nii.gz,Vehicle,1.3960102796554565,1.5750935077667236,1.784776210784912,1.2386517524719238,False,
114,EPI,cbv,/home/chymera/.scratch/drlfom/dw_l1/sub-6556/ses-ofM/sub-6556_ses-ofM_task-CogB_acq-EPI_run-0_cbv_tstat.nii.gz,0,ofM,6556,CogB,/home/chymera/.scratch/drlfom/dw_l1/sub-6556/ses-ofM/sub-6556_ses-ofM_task-CogB_acq-EPI_run-0_cbv_pstat.nii.gz,Vehicle,2.13429594039917,1.6126337051391602,3.3839375972747803,1.2717881202697754,False,
115,EPI,bold,/home/chymera/.scratch/drlfom/dw_l1/sub-6556/ses-ofMaF/sub-6556_ses-ofMaF_task-CogB_acq-EPI_run-0_bold_tstat.nii.gz,0,ofMaF,6556,CogB,/home/chymera/.scratch/drlfom/dw_l1/sub-6556/ses-ofMaF/sub-6556_ses-ofMaF_task-CogB_acq-EPI_run-0_bold_pstat.nii.gz,Vehicle,-0.7977979779243469,-0.6305001974105835,0.4398972988128662,0.13327151536941528,False,"agitated during induction; tail too short, unable to cannulate"
116,EPI,bold,/home/chymera/.scratch/drlfom/dw_l1/sub-6556/ses-ofMcF1/sub-6556_ses-ofMcF1_task-CogB_acq-EPI_run-0_bold_tstat.nii.gz,0,ofMcF1,6556,CogB,/home/chymera/.scratch/drlfom/dw_l1/sub-6556/ses-ofMcF1/sub-6556_ses-ofMcF1_task-CogB_acq-EPI_run-0_bold_pstat.nii.gz,Vehicle,-0.0481116846203804,0.19573038816452026,1.064278483390808,0.3786405622959137,False,"tail too short, unable to cannulate"
117,EPI,bold,/home/chymera/.scratch/drlfom/dw_l1/sub-6556/ses-ofMcF2/sub-6556_ses-ofMcF2_task-CogB_acq-EPI_run-0_bold_tstat.nii.gz,0,ofMcF2,6556,CogB,/home/chymera/.scratch/drlfom/dw_l1/sub-6556/ses-ofMcF2/sub-6556_ses-ofMcF2_task-CogB_acq-EPI_run-0_bold_pstat.nii.gz,Vehicle,0.036424241960048676,-0.11862890422344208,0.9794964790344238,0.26186031103134155,False,"session timestamp recorded at induction to maintenance anesthesia switch; tail too short, unable to cannulate; flinching (signs of partial Medetomidine anesthesia mis-delivery)"
118,EPI,bold,/home/chymera/.scratch/drlfom/dw_l1/sub-6556/ses-ofMpF/sub-6556_ses-ofMpF_task-CogB_acq-EPI_run-0_bold_tstat.nii.gz,0,ofMpF,6556,CogB,/home/chymera/.scratch/drlfom/dw_l1/sub-6556/ses-ofMpF/sub-6556_ses-ofMpF_task-CogB_acq-EPI_run-0_bold_pstat.nii.gz,Vehicle,-0.3145763874053955,-0.5843275785446167,0.6145750284194946,0.1424247920513153,False,"tail too short, unable to cannulate"
